\relax 
\catcode `:\active 
\catcode `;\active 
\catcode `!\active 
\catcode `?\active 
\select@language{french}
\@writefile{toc}{\select@language{french}}
\@writefile{lof}{\select@language{french}}
\@writefile{lot}{\select@language{french}}
\@writefile{toc}{\contentsline {section}{\numberline {1}Introduction}{2}}
\@writefile{toc}{\contentsline {section}{\numberline {2}Types de bruits cardiaques}{2}}
\@writefile{toc}{\contentsline {section}{\numberline {3}Bruits physiologiques}{2}}
\@writefile{lof}{\contentsline {figure}{\numberline {1}{\ignorespaces "B1 et B2 normaux."}}{2}}
\@writefile{toc}{\contentsline {subsection}{\numberline {3.1}Premier bruit cardiaque}{2}}
\@writefile{lof}{\contentsline {figure}{\numberline {2}{\ignorespaces "Exemples de B1 anormal."}}{2}}
\@writefile{toc}{\contentsline {subsection}{\numberline {3.2}Deuxi\IeC {\`e}me bruit cardiaque}{3}}
\@writefile{lof}{\contentsline {figure}{\numberline {3}{\ignorespaces "Exemples de B2 anormal."}}{3}}
\@writefile{toc}{\contentsline {section}{\numberline {4}Bruits systoliques surajout\IeC {\'e}s}{3}}
\@writefile{toc}{\contentsline {subsection}{\numberline {4.1}Clic protosystolique}{3}}
\@writefile{toc}{\contentsline {subsection}{\numberline {4.2}Clic m\IeC {\'e}sot\IeC {\'e}l\IeC {\'e}systolique}{3}}
\@writefile{toc}{\contentsline {section}{\numberline {5}Bruits diastoliques surajout\IeC {\'e}s}{4}}
\@writefile{toc}{\contentsline {subsection}{\numberline {5.1}Claquement d\IeC {\textquoteright }ouverture mitrale (COM)}{4}}
\@writefile{toc}{\contentsline {subsection}{\numberline {5.2}Claquement d\IeC {\textquoteright }ouverture tricuspidienne (COT)}{4}}
\@writefile{toc}{\contentsline {subsection}{\numberline {5.3}Troisi\IeC {\`e}me bruit physiologique (B3)}{4}}
\@writefile{toc}{\contentsline {subsection}{\numberline {5.4}Galop protodiastolique (GPD)}{4}}
\@writefile{toc}{\contentsline {subsection}{\numberline {5.5}Galop pr\IeC {\'e}systolique (B4)}{4}}
\@writefile{toc}{\contentsline {subsection}{\numberline {5.6}Galop de sommation (GS)}{4}}
\@writefile{toc}{\contentsline {subsection}{\numberline {5.7}Bruit protodiastolique d\IeC {\textquoteright }origine p\IeC {\'e}ricardique}{4}}
\@writefile{toc}{\contentsline {subsection}{\numberline {5.8}Frottement p\IeC {\'e}ricardique}{4}}
\@writefile{lof}{\contentsline {figure}{\numberline {4}{\ignorespaces "Frottement p\IeC {\'e}ricardique." Contraction atriale (CA), contraction ventriculaire (VC) et relaxation ventriculaire (VR).}}{5}}
\@writefile{toc}{\contentsline {section}{\numberline {6}Souffles systoliques}{5}}
\@writefile{toc}{\contentsline {subsection}{\numberline {6.1}Fonctionnel}{5}}
\@writefile{toc}{\contentsline {subsection}{\numberline {6.2}St\IeC {\'e}nose valvulaire (aortique ou pulmonaire)}{5}}
\@writefile{toc}{\contentsline {subsubsection}{\numberline {6.2.1}St\IeC {\'e}nose aortique}{5}}
\@writefile{lof}{\contentsline {figure}{\numberline {5}{\ignorespaces "Stenose aortique."}}{5}}
\@writefile{toc}{\contentsline {subsubsection}{\numberline {6.2.2}St\IeC {\'e}nose pulmonaire}{5}}
\@writefile{lof}{\contentsline {figure}{\numberline {6}{\ignorespaces "St\IeC {\'e}nose valvulaire pulmonaire."}}{5}}
\@writefile{toc}{\contentsline {subsection}{\numberline {6.3}Coarctation aortique}{6}}
\@writefile{lof}{\contentsline {figure}{\numberline {7}{\ignorespaces "Coarctation aortique."}}{6}}
\@writefile{toc}{\contentsline {subsection}{\numberline {6.4}R\IeC {\'e}gurgitation}{6}}
\@writefile{toc}{\contentsline {subsubsection}{\numberline {6.4.1}Insuffisance mitrale}{6}}
\@writefile{lof}{\contentsline {figure}{\numberline {8}{\ignorespaces "Insuffisance mitrale s\IeC {\'e}v\IeC {\`e}re."}}{6}}
\@writefile{toc}{\contentsline {subsubsection}{\numberline {6.4.2}Insuffisance tricuspidienne}{6}}
\@writefile{lof}{\contentsline {figure}{\numberline {9}{\ignorespaces "Insuffisance tricuspidienne."}}{6}}
\@writefile{toc}{\contentsline {subsubsection}{\numberline {6.4.3}Communication interventriculaire}{7}}
\@writefile{lof}{\contentsline {figure}{\numberline {10}{\ignorespaces "Communication interventriculaire."}}{7}}
\@writefile{lof}{\contentsline {figure}{\numberline {11}{\ignorespaces "Communication interventriculaire."}}{7}}
\@writefile{toc}{\contentsline {subsection}{\numberline {6.5}Cardiomyopathie hypertrophique obstructive}{7}}
\@writefile{lof}{\contentsline {figure}{\numberline {12}{\ignorespaces "Cardiomyopathie hypertrophique obstructive."}}{7}}
\@writefile{toc}{\contentsline {subsection}{\numberline {6.6}Souffle de t\IeC {\'e}tralogie de Fallot}{7}}
\@writefile{lof}{\contentsline {figure}{\numberline {13}{\ignorespaces "T\IeC {\'e}tralogie de Fallot."}}{7}}
\@writefile{lof}{\contentsline {figure}{\numberline {14}{\ignorespaces "Communication interventriculaire large (r\IeC {\'e}action d'Eisenmerger). Le deuxi\IeC {\`e}me bruit est large et unique."}}{8}}
\@writefile{toc}{\contentsline {section}{\numberline {7}Souffles diastoliques}{8}}
\@writefile{toc}{\contentsline {subsection}{\numberline {7.1}Insuffisance aortique}{8}}
\@writefile{lof}{\contentsline {figure}{\numberline {15}{\ignorespaces "Insuffisance aortique''. On doit le chercher en expiration, pench\IeC {\'e} en avant.}}{8}}
\@writefile{toc}{\contentsline {subsection}{\numberline {7.2}Insuffisance pulmonaire}{8}}
\@writefile{lof}{\contentsline {figure}{\numberline {16}{\ignorespaces "Insuffisance pulmonaire organique."}}{8}}
\@writefile{toc}{\contentsline {subsection}{\numberline {7.3}Remplissage diastolique}{8}}
\@writefile{toc}{\contentsline {subsection}{\numberline {7.4}St\IeC {\'e}nose (mitrale ou tricuspidienne)}{8}}
\@writefile{lof}{\contentsline {figure}{\numberline {17}{\ignorespaces "St\IeC {\'e}nose mitrale."}}{9}}
\@writefile{toc}{\contentsline {subsection}{\numberline {7.5}Sans st\IeC {\'e}nose}{9}}
\@writefile{lof}{\contentsline {figure}{\numberline {18}{\ignorespaces "Communication interauriculaire."}}{9}}
\@writefile{toc}{\contentsline {section}{\numberline {8}Souffles continus (en systole et en diastole)}{9}}
\@writefile{lof}{\contentsline {figure}{\numberline {19}{\ignorespaces "Canal art\IeC {\'e}riel."}}{9}}
\@writefile{toc}{\contentsline {section}{\numberline {9}Valves artificielles}{9}}
\@writefile{toc}{\contentsline {subsection}{\numberline {9.1}Valve \IeC {\`a} disque}{9}}
\@writefile{lof}{\contentsline {figure}{\numberline {20}{\ignorespaces "Valve \IeC {\`a} disque en position mitrale avec souffle \IeC {\'e}jectionnel et roulement diastolique."}}{10}}
\@writefile{toc}{\contentsline {subsection}{\numberline {9.2}Valve \IeC {\`a} double feuillet}{10}}
\@writefile{toc}{\contentsline {subsection}{\numberline {9.3}Valve tissulaire (souvent porcine)}{10}}
\@writefile{lof}{\contentsline {figure}{\numberline {21}{\ignorespaces "Valve porcine en position mitrale avec souffle \IeC {\'e}jectionnel, bruit d'ouverture protodiastolique et roulement diastolique."}}{10}}
